F:\Dokumenty\NetBeansProjects\WeatherApp\src\main\java\weatherapp\Logo.java
F:\Dokumenty\NetBeansProjects\WeatherApp\src\main\java\weatherapp\City.java
F:\Dokumenty\NetBeansProjects\WeatherApp\src\main\java\weatherapp\MainMenu.java
F:\Dokumenty\NetBeansProjects\WeatherApp\src\main\java\weatherapp\RestResources.java
F:\Dokumenty\NetBeansProjects\WeatherApp\src\main\java\weatherapp\User.java
F:\Dokumenty\NetBeansProjects\WeatherApp\src\main\java\weatherapp\Weather.java
F:\Dokumenty\NetBeansProjects\WeatherApp\src\main\java\weatherapp\Logs.java
F:\Dokumenty\NetBeansProjects\WeatherApp\src\main\java\weatherapp\Main.java
